{
    "$schema": "http://bigcontent.io/cms/schema/v1/schema#",
    "id": "https://halfordsonline.bitbucket.io/content-types/content-definitions/genericText.json",
    "title": "Text definition",
    "description": "Text Accelerator",
    "allOf": [{
        "$ref": "http://bigcontent.io/cms/schema/v1/core#/definitions/content"
    }],
    "propertyOrder": [
        "text",
        "color",
        "type",
        "align",
        "background"
    ],
    "type": "object",
    "properties": {
        "text": {
            "title": "Text",
            "type": "string",
            "minLength": 0,
            "maxLength": 256,
            "description": ""
        },
        "color": {
            "title": "Color",
            "allOf": [{
                "$ref": "http://bigcontent.io/cms/schema/v1/core#/definitions/content-link"
            }, {
                "properties": {
                    "contentType": {
                        "enum": [
                            "https://halfordsonline.bitbucket.io/content-types/content-definitions/colors.json"
                        ]
                    }
                }
            }]
        },
        "type": {
            "title": "Font definition",
            "allOf": [{
                "$ref": "http://bigcontent.io/cms/schema/v1/core#/definitions/content-link"
            }, {
                "properties": {
                    "contentType": {
                        "enum": [
                            "https://halfordsonline.bitbucket.io/content-types/content-definitions/headingType.json"
                        ]
                    }
                }
            }]
        },
        "align": {
            "type": "string",
            "enum": [
                "left",
                "center",
                "right"
            ],
            "title": "Align"
        },
        "background": {
            "title": "Background color",
            "allOf": [{
                "$ref": "http://bigcontent.io/cms/schema/v1/core#/definitions/content-link"
            }, {
                "properties": {
                    "contentType": {
                        "enum": [
                            "https://halfordsonline.bitbucket.io/content-types/content-definitions/colors.json"
                        ]
                    }
                }
            }]
        }
    }
}