{
    "$schema": "http://bigcontent.io/cms/schema/v1/schema#",
    "id": "https://halfordsonline.bitbucket.io/content-types/content-configuration/content-type-6.json",
    "title": "Content Type 6",
    "description": "Card Accelerator which used content definition link and image",
    "allOf": [{
        "$ref": "http://bigcontent.io/cms/schema/v1/core#/definitions/content"
    }],
    "propertyOrder": [
        "gridTypeValue",
        "textColor",
        "textGridType",
        "isLeftOnMobile",
        "textVerticalPosition",
        "textHorizontalPosition",
        "textAlignment",
        "textRow1",
        "textRow1Size",
        "textRow1Color",
        "textRow2",
        "textRow2Size",
        "textRow2Color",
        "textRow3",
        "textRow3Size",
        "textRow3Color",
        "image",
        "isImageDarken",
        "isImageInBackgroundTablet",
        "isImageInBackground",
        "isLinkAvailable",
        "link",
        "linkType"
    ],
    "type": "object",
    "properties": {
        "gridTypeValue": {
            "title": "Grid configuration classes",
            "description": "https://getbootstrap.com/docs/4.2/layout/grid/",
            "type": "string",
            "minLength": 0,
            "maxLength": 100
        },
        "image": {
            "title": "Image",
            "description": "Responsive Image",
            "type": "object",
            "allOf": [{
                "$ref": "https://halfordsonline.bitbucket.io/content-types/content-definitions/image.json"
            }]
        },
        "isImageDarken": {
            "title": "",
            "description": "Shadow image by semi transparent black overlay",
            "type": "boolean"
        },
        "isImageInBackground": {
            "title": "",
            "description": "Image in background on Mobile and Tablet",
            "type": "boolean"
        },
        "isImageInBackgroundTablet": {
            "title": "",
            "description": "Image in background on Tablet only",
            "type": "boolean"
        },
        "textColor": {
            "type" : "object",
            "title" : "",
            "allOf" : [{
                    "$ref": "https://halfordsonline.bitbucket.io/content-types/content-definitions/text-colors.json"
                }
            ]
        },
        "textGridType" : {
			"title": "Text block grid type",
            "description": "",
            "type": "string",
            "minLength": 0,
            "maxLength": 100
        },
        "isLeftOnMobile": {
            "title": "",
            "description": "Left align of text on mobiles",
            "type": "boolean"
        },
        "textVerticalPosition": {
            "type": "string",
            "enum": [
                "start",
                "center",
                "end"
            ],
            "title": "Vertical Text Position"
        },
        "textHorizontalPosition": {
            "type": "string",
            "enum": [
                "start",
                "center",
                "end"
            ],
            "title": "Horizontal Text Position"
        },
        "textAlignment": {
            "type": "string",
            "enum": [
                "left",
                "center",
                "right"
            ],
            "title": "Text Alignment"
        },
        "textRow1": {
            "type": "string",
            "minLength": 0,
            "maxLength": 70,
            "title": "Title",
            "description": ""
        },
        "textRow1Size" : {
            "type" : "object",
            "allOf" : [{
                "$ref": "https://halfordsonline.bitbucket.io/content-types/content-definitions/textSizeDefinition.json"
            }]
        },
        "textRow1Color": {
            "type" : "object",
            "title" : "",
            "allOf" : [{
                    "$ref": "https://halfordsonline.bitbucket.io/content-types/content-definitions/text-colors.json"
                }
            ]
        },
        "textRow2": {
            "type": "string",
            "minLength": 0,
            "maxLength": 70,
            "title": "Title 2nd row",
            "description": ""
        },
        "textRow2Size" : {
            "type" : "object",
            "allOf" : [{
                "$ref": "https://halfordsonline.bitbucket.io/content-types/content-definitions/textSizeDefinition.json"
            }]
        },
        "textRow2Color": {
            "type" : "object",
            "title" : "",
            "allOf" : [{
                    "$ref": "https://halfordsonline.bitbucket.io/content-types/content-definitions/text-colors.json"
                }
            ]
        },
        "textRow3": {
            "type": "string",
            "minLength": 0,
            "maxLength": 256,
            "title": "Text",
            "description": ""
        },
        "textRow3Size" : {
            "type" : "object",
            "allOf" : [{
                "$ref": "https://halfordsonline.bitbucket.io/content-types/content-definitions/textSizeDefinition.json"
            }]
        },
        "textRow3Color": {
            "type" : "object",
            "title" : "",
            "allOf" : [{
                    "$ref": "https://halfordsonline.bitbucket.io/content-types/content-definitions/text-colors.json"
                }
            ]
        },
        "isLinkAvailable": {
            "title": "",
            "description": "Show CTA",
            "type": "boolean"
        },
        "link": {
            "title": "Link",
            "description": "Add Link",
            "type": "object",
            "allOf": [{
                "$ref": "https://halfordsonline.bitbucket.io/content-types/content-definitions/link.json"
            }]
        },
        "linkType": {
            "type": "string",
            "enum": [
                "primary",
                "secondary",
                "tertiary",
                "outline",
                "submit"
            ],
            "title": "CTA view type"
        }
    }
}