{
    "$schema": "http://bigcontent.io/cms/schema/v1/schema#",
    "id": "https://halfordsonline.bitbucket.io/content-types/content-configuration/content-carousel-item.json",
    "title": "Content Type",
    "description": "Carousel Slide",
    "allOf": [{
        "$ref": "http://bigcontent.io/cms/schema/v1/core#/definitions/content"
    }],
    "propertyOrder": [
        "gridTypeValue",
        "bgColorBlock",
        "textAlignment",
        "textVerticalPosition",
        "textHorizontalPosition",
        "textRow1",
        "textRow1Size",
        "textRow1color",
        "textRow2",
        "textRow2Size",
        "textRow2color",
        "textRow3",
        "textRow3Size",
        "textRow3color",
        "isLinkAvailable",
        "isLinkInline",
        "link",
        "linkType",
        "isImageDarken",
        "image"
    ],
    "type": "object",
    "properties": {
        "gridTypeValue": {
            "title": "Grid configuration classes",
            "description": "https://getbootstrap.com/docs/4.2/layout/grid/",
            "type": "string",
            "minLength": 0,
            "maxLength": 100
        },
        "image": {
            "title": "Image",
            "description": "Responsive Image",
            "type": "object",
            "allOf": [{
                "$ref": "https://halfordsonline.bitbucket.io/content-types/content-definitions/image.json"
            }]
        },
        "isImageDarken": {
            "title": "",
            "description": "Shadow image by semi transparent black overlay",
            "type": "boolean"
        },
        "textAlignment": {
            "type": "string",
            "enum": [
                "left",
                "center",
                "right"
            ],
            "title": "Text Align"
        },
        "textVerticalPosition": {
            "type": "string",
            "enum": [
                "start",
                "center",
                "end"
            ],
            "title": "Text Vertical Alignment"
        },
        "textHorizontalPosition": {
            "type": "string",
            "enum": [
                "start",
                "center",
                "end"
            ],
            "title": "Text Horizontal Position"
        },
        "textRow1": {
            "type": "string",
            "minLength": 0,
            "maxLength": 70,
            "title": "Title",
            "description": ""
        },
        "textRow1Size" : {
            "type" : "object",
            "allOf" : [{
                "$ref": "https://halfordsonline.bitbucket.io/content-types/content-definitions/textSizeDefinition.json"
            }]
        },
        "textRow1color": {
            "type" : "object",
            "title" : "",
            "allOf" : [{
                    "$ref": "https://halfordsonline.bitbucket.io/content-types/content-definitions/text-colors.json"
                }
            ]
        },
        "textRow2": {
            "type": "string",
            "minLength": 0,
            "maxLength": 70,
            "title": "Subtitle",
            "description": ""
        },
        "textRow2Size" : {
            "type" : "object",
            "allOf" : [{
                "$ref": "https://halfordsonline.bitbucket.io/content-types/content-definitions/textSizeDefinition.json"
            }]
        },
        "textRow2color": {
            "type" : "object",
            "title" : "",
            "allOf" : [{
                    "$ref": "https://halfordsonline.bitbucket.io/content-types/content-definitions/text-colors.json"
                }
            ]
        },
        "textRow3": {
            "type": "string",
            "minLength": 0,
            "maxLength": 256,
            "title": "Text",
            "description": ""
        },
        "textRow3Size" : {
            "type" : "object",
            "allOf" : [{
                "$ref": "https://halfordsonline.bitbucket.io/content-types/content-definitions/textSizeDefinition.json"
            }]
        },
        "textRow3color": {
            "type" : "object",
            "title" : "",
            "allOf" : [{
                    "$ref": "https://halfordsonline.bitbucket.io/content-types/content-definitions/text-colors.json"
                }
            ]
        },
        "bgColorBlock": {
            "type" : "object",
            "title" : "",
            "allOf" : [{
                    "$ref": "https://halfordsonline.bitbucket.io/content-types/content-definitions/colors.json"
                }
            ]
        },
        "isLinkAvailable": {
            "title": "",
            "description": "Show CTA",
            "type": "boolean"
        },
        "isLinkInline": {
            "title": "",
            "description": "Link is inline text, not button",
            "type": "boolean"
        },
        "link": {
            "title": "Link",
            "description": "Add Link",
            "type": "object",
            "allOf": [{
                "$ref": "https://halfordsonline.bitbucket.io/content-types/content-definitions/link.json"
            }]
        },
        "linkType": {
            "type": "string",
            "enum": [
                "primary",
                "secondary",
                "tertiary",
                "outline",
                "submit"
            ],
            "title": "CTA view type"
        }
    }
}