{
    "$schema": "http://bigcontent.io/cms/schema/v1/schema#",
    "id": "https://halfordsonline.bitbucket.io/content-types/content-configuration/content-type-8.json",
    "title": "Content Type 8",
    "description": "Card Accelerator",
    "allOf": [{
        "$ref": "http://bigcontent.io/cms/schema/v1/core#/definitions/content"
    }],
    "propertyOrder": [
        "gridTypeValue",
        "textPosition",
        "textRow1",
        "colorText",
        "textRow1Size",
        "isLinkAvailable",
        "link",
        "linkType",
        "image"
    ],
    "type": "object",
    "properties": {
        "gridTypeValue": {
            "title": "Grid configuration classes",
            "description": "https://getbootstrap.com/docs/4.2/layout/grid/",
            "type": "string",
            "minLength": 0,
            "maxLength": 100
        },
        "image": {
            "title": "Image",
            "description": "Responsive Image",
            "type": "object",
            "allOf": [{
                "$ref": "https://halfordsonline.bitbucket.io/content-types/content-definitions/image.json"
            }]
        },
        "textPosition": {
            "type": "string",
            "enum": [
                "left",
                "center",
                "right"
            ],
            "title": "Text position"
        },
        "textRow1": {
            "type": "string",
            "minLength": 0,
            "maxLength": 70,
            "title": "Title",
            "description": ""
        },
        "colorText": {
            "type" : "object",
            "title" : "",
            "allOf" : [{
                    "$ref": "https://halfordsonline.bitbucket.io/content-types/content-definitions/text-colors.json"
                }
            ]
        },
        "textRow1Size" : {
            "type" : "object",
            "title" : "Colors",
            "allOf" : [{
                "$ref": "https://halfordsonline.bitbucket.io/content-types/content-definitions/textSizeDefinition.json"
            }]
        },
        "isLinkAvailable": {
            "title": "",
            "description": "Show CTA",
            "type": "boolean"
        },
        "link": {
            "title": "Link",
            "description": "Add Link",
            "type": "object",
            "allOf": [{
                "$ref": "https://halfordsonline.bitbucket.io/content-types/content-definitions/link.json"
            }]
        },
        "linkType": {
            "type": "string",
            "enum": [
                "primary",
                "secondary",
                "tertiary",
                "outline",
                "submit"
            ],
            "title": "CTA view type"
        }
    }
}