{
    "$schema": "http://bigcontent.io/cms/schema/v1/schema#",
    "id": "https://halfordsonline.bitbucket.io/content-types/content-configuration/hp-personalized-services.json",
    "title": "HP Personalized Services View",
    "description": "",
    "allOf": [{
        "$ref": "http://bigcontent.io/cms/schema/v1/core#/definitions/content"
    }],
    "propertyOrder": [
        "gridTypeValue",
        "colorText",
        "extraClassValue",
        "title",
        "titleSize",
        "descriptionLine",
        "subtitle",
        "subtitleSize",
        "image",
        "isImageDarken",
        "isLinkAvailable",
        "link",
        "hasTwoColLayout",
        "categoryLinks"
    ],
    "type": "object",
    "properties": {
        "gridTypeValue": {
            "title": "Grid configuration classes",
            "description": "https://getbootstrap.com/docs/4.2/layout/grid/",
            "type": "string",
            "minLength": 0,
            "maxLength": 100
        },
        "image": {
            "title": "Image",
            "description": "Responsive Image",
            "type": "object",
            "allOf": [{
                "$ref": "https://halfordsonline.bitbucket.io/content-types/content-definitions/image.json"
            }]
        },
        "isImageDarken": {
            "title": "",
            "description": "Shadow image by semi transparent black overlay",
            "type": "boolean"
        },
        "colorText": {
            "type" : "object",
            "title" : "",
            "allOf" : [{
                    "$ref": "https://halfordsonline.bitbucket.io/content-types/content-definitions/text-colors.json"
                }
            ]
        },
        "extraClassValue": {
            "title": "Unique css class",
            "description": "extra identifier for content text block",
            "type": "string",
            "minLength": 0,
            "maxLength": 100
        },
        "title": {
            "type": "string",
            "minLength": 0,
            "maxLength": 70,
            "title": "Title",
            "description": ""
        },
        "titleSize" : {
            "type" : "object",
            "allOf" : [{
                "$ref": "https://halfordsonline.bitbucket.io/content-types/content-definitions/textSizeDefinition.json"
            }]
        },
        "descriptionLine": {
            "type": "string",
            "minLength": 0,
            "maxLength": 70,
            "title": "Description",
            "description": ""
        },
        "subtitle": {
            "type": "string",
            "minLength": 0,
            "maxLength": 70,
            "title": "Subtitle",
            "description": ""
        },
        "subtitleSize" : {
            "type" : "object",
            "allOf" : [{
                "$ref": "https://halfordsonline.bitbucket.io/content-types/content-definitions/textSizeDefinition.json"
            }]
        },
        "isLinkAvailable": {
            "title": "",
            "description": "Show CTA",
            "type": "boolean"
        },
        "link": {
            "title": "Link",
            "description": "Add Link",
            "type": "object",
            "allOf": [{
                "$ref": "https://halfordsonline.bitbucket.io/content-types/content-definitions/link.json"
            }]
        },
        "hasTwoColLayout": {
            "title": "",
            "description": "Render Links in two columns",
            "type": "boolean"
        },
        "categoryLinks": {
            "type": "array",
            "title": "Category Links",
            "items": {
                "type": "object",
                "properties": {
                    "link": {
                        "$ref": "https://halfordsonline.bitbucket.io/content-types/content-definitions/link.json"
                    }
                },
                "minItems": 1,
                "maxItems": 20,
                "title": "Category Link",
                "description": ""
            }
        }
    }
}